<?xml version="1.0" encoding="utf-8"?>
<!-- Generator: Adobe Illustrator 16.0.0, SVG Export Plug-In . SVG Version: 6.00 Build 0)  -->
<!DOCTYPE svg PUBLIC "-//W3C//DTD SVG 1.1//EN" "http://www.w3.org/Graphics/SVG/1.1/DTD/svg11.dtd">
<svg version="1.1" id="Layer_2" xmlns="http://www.w3.org/2000/svg" xmlns:xlink="http://www.w3.org/1999/xlink" x="0px" y="0px"
	 width="200px" height="150px" viewBox="0 0 200 150" enable-background="new 0 0 200 150" xml:space="preserve">
<g>
	<path fill="none" d="M76.8901367,121.9453125c0.7973633,0.4882813,1.4741211,0.8876953,1.5,0.8916016
		c0.0268555,0.0019531,0.7260742-1.2011719,1.5571289-2.6738281c3.2626953-5.7871094,5.8208008-10.9375,7.7734375-15.6601563
		c0.2299805-0.5546875,0.4042969-1.0253906,0.3901367-1.0410156c-0.0166016-0.015625-0.7407227,0.28125-1.6132813,0.65625
		c-6.1635742,2.65625-12.3608398,4.796875-19.6699219,6.7998047l-2.0493164,0.5625l0.3945313,0.4912109
		C67.9326172,115.4550781,72.1376953,119.0361328,76.8901367,121.9453125z"/>
	<path fill="none" d="M74.4560547,124.2285156c0.0458984-0.0292969-0.4926758-0.3837891-1.2001953-0.7919922
		c-4.0053711-2.3144531-7.2890625-4.9990234-10.5170898-8.5947266l-0.7216797-0.8056641l-3.9580078,4.7626953
		c-5.7734375,6.9482422-8.4116211,10.2929688-10.512207,13.3349609l-0.6464844,0.9335938l0.4121094,0.2949219
		c0.2270508,0.1621094,0.4291992,0.2929688,0.4458008,0.2958984c0.0161133,0.0019531,2.9477539-1.0117188,6.5170898-2.2558594
		C60.6044922,129.1972656,74.2900391,124.3310547,74.4560547,124.2285156z"/>
	<path fill="none" d="M60.3613281,101.9482422c0.3295898,1.7724609,0.9663086,3.6787109,1.7260742,5.1904297
		c0.347168,0.6904297,0.3935547,0.7441406,0.5063477,0.5800781c0.0683594-0.0976563,0.5727539-0.9003906,1.1206055-1.7763672
		c3.1738281-5.0791016,5.5639648-9.2412109,7.7324219-13.4697266c0.9321289-1.8193359,1.8676758-3.7734375,2.1196289-4.4082031
		c-4.4912109,1.9501953-8.7124023,3.9140625-12.7255859,5.9179688c-0.1308594,0.2060547-0.2016602,0.5410156-0.3574219,1.2880859
		C60.0908203,97.1552734,60.0356445,100.1923828,60.3613281,101.9482422z"/>
	<path fill="none" d="M43.2333984,105.0371094c-3.5039063,3.6230469-6.0117188,7.9375-6.5224609,11.2255859
		c-0.059082,0.3779297-0.0444336,0.4150391,0.1176758,0.3662109c0.0981445-0.0302734,1.3051758-0.3623047,2.6865234-0.7421875
		c4.6591797-1.2753906,19.4780273-5.6123047,19.6411133-5.7470703c0.019043-0.0166016-0.3349609-0.7822266-0.7875977-1.703125
		c-1.6269531-3.3076172-2.1586914-5.7246094-1.9785156-9.0009766c0.0410156-0.7490234,0.1538086-1.8320313,0.2529297-2.40625
		c0.109375-0.6298828,0.1484375-0.8789063,0.1201172-0.9599609c-1.0947266,0.5751953-2.1787109,1.1533203-3.2456055,1.7363281
		c-1.706543,0.9335938-3.0458984,1.6777344-4.1308594,2.3007813
		C46.9204102,101.6054688,45.2490234,102.9541016,43.2333984,105.0371094z"/>
	<path fill="none" d="M92.8920898,102.9501953c-0.6557617-0.3789063-1.2045898-0.671875-1.21875-0.6552734
		c-0.0146484,0.0166016-0.1445313,0.3964844-0.2895508,0.8486328c-1.4399414,4.4287109-4.2431641,10.8115234-7.0522461,16.0634766
		c-0.5063477,0.9462891-0.9204102,1.7402344-0.9204102,1.7626953s0.2280273-0.0537109,0.5073242-0.1640625
		c0.2788086-0.109375,1.7036133-0.6464844,3.1650391-1.1953125c10.0058594-3.7539063,19.8022461-7.8300781,22.777832-9.4804688
		l0.7080078-0.3935547l-0.5166016-0.1171875C104.3583984,108.3154297,97.6787109,105.71875,92.8920898,102.9501953z"/>
	<path fill="none" d="M109.4160156,111.5878906c-3.6152344,2.1728516-14.1845703,7.2421875-24.3867188,11.6933594
		c-1.6865234,0.7353516-3.0361328,1.3730469-2.9970703,1.4111328c0.1206055,0.1171875,2.3769531,1.1171875,3.9394531,1.7451172
		c5.5864258,2.2451172,11.5493164,3.9248047,18.2070313,5.1289063c0.1328125,0.0234375,0.2626953,0.0498047,0.2890625,0.0556641
		c0.0283203,0.0087891,0.4941406-1.3896484,1.0371094-3.1025391c1.2294922-3.8798828,1.8916016-6.0693359,2.6816406-8.8671875
		c0.9423828-3.3369141,2.0732422-7.9462891,2.0732422-8.4443359c0-0.0097656-0.0039063-0.0166016-0.015625-0.0185547
		C110.171875,111.1748047,109.8505859,111.3261719,109.4160156,111.5878906z"/>
	<path fill="none" d="M102.3916016,134.0761719c-4.4086914,2.0488281-8.7744141,3.7324219-13.1845703,5.0820313
		c-3.4960938,1.0693359-6.9423828,1.9365234-14.1181641,3.5546875l-3.3476563,0.7548828l0.5488281,0.1210938
		c2.3598633,0.5380859,11.7167969,2.171875,17.3007813,3.0205078c3.1914063,0.4833984,8.4633789,1.2207031,8.8388672,1.2363281
		c0.1557617,0.0078125,0.265625-0.1650391,0.5625-0.8808594c1.3291016-3.1914063,4.9648438-13.2626953,4.8720703-13.4951172
		c-0.0019531-0.0039063-0.0117188-0.0039063-0.0332031,0C103.6826172,133.5029297,103.0898438,133.7509766,102.3916016,134.0761719z
		"/>
	<path fill="none" d="M97.8022461,134.4746094c2.4243164-0.7626953,5.7231445-1.8642578,5.8745117-1.9609375
		c0.0810547-0.0507813-0.1757813-0.1083984-0.6757813-0.1503906c-3.2568359-0.2744141-8.7592773-1.2265625-12.5654297-2.1796875
		c-3.0996094-0.7753906-5.390625-1.4873047-8.3085938-2.578125c-1.2109375-0.453125-2.2109375-0.8085938-2.2265625-0.7880859
		c-0.0166016,0.0185547-0.628418,0.9482422-1.3608398,2.0625c-2.6723633,4.0732422-5.8759766,8.3808594-9.1005859,12.2392578
		c-0.6533203,0.7802734-1.190918,1.4609375-1.190918,1.5078125c0,0.1015625,0.7514648,0.2978516,0.9658203,0.2539063
		c0.0800781-0.0166016,1.6010742-0.4482422,3.3813477-0.9609375
		C82.1879883,139.1591797,93.9521484,135.6835938,97.8022461,134.4746094z"/>
	<path fill="none" d="M71.581543,133.9052734c2.7958984-4.4023438,4.3852539-6.9472656,4.3569336-6.9755859
		c-0.0131836-0.0117188-0.5683594,0.1425781-1.234375,0.3515625c-3.5625,1.1113281-8.9946289,2.6494141-18.815918,5.3271484
		c-3.6914063,1.0058594-6.7563477,1.84375-6.8081055,1.8603516c-0.1767578,0.0566406,2.0825195,1.484375,3.8642578,2.4482422
		c1.425293,0.7705078,3.3579102,1.6591797,5.2133789,2.3964844c1.4970703,0.59375,7.1630859,2.5947266,7.9658203,2.8125
		l0.3334961,0.0898438l0.6567383-1.1455078c0.359375-0.6279297,1.0317383-1.7333984,1.4912109-2.4609375
		C69.0625,137.8818359,70.4018555,135.765625,71.581543,133.9052734z"/>
	<path fill="none" d="M52.3623047,122.6542969c3.9858398-5.5800781,6.8398438-9.6640625,6.7851563-9.7158203
		c-0.0126953-0.0117188-1.0820313,0.2324219-2.3725586,0.5439453c-1.2915039,0.3105469-4.8955078,1.1572266-8.0131836,1.8798828
		c-5.612793,1.3017578-11.5981445,2.7099609-11.9238281,2.8085938c-0.2255859,0.0673828-0.21875,0.6132813,0.0185547,1.6826172
		c0.5146484,2.3193359,1.8178711,4.8417969,3.7412109,7.2402344c0.9355469,1.1650391,2.9960938,3.2636719,4.1738281,4.2529297
		l1.003418,0.8427734l0.9423828-1.4521484c0.5166016-0.8007813,1.4277344-2.1523438,2.0292969-3.0058594
		C49.3496094,126.8769531,50.9770508,124.5917969,52.3623047,122.6542969z"/>
	<path fill="none" d="M67.5058594,16.8242188l-3.1508789-3.9345703l-0.2861328,0.1972656
		c-3.2324219,2.2802734-5.1376953,4.5087891-5.1533203,6.0200195l-0.003418,0.2539063
		c0.2397461,0.0893555,0.4741211,0.1767578,0.6958008,0.2641602c1.2280273,0.4228516,2.6708984,0.8144531,3.9165039,1.1225586
		c0.4550781,0.109375,0.9667969,0.2290039,1.5664063,0.3666992c0.1367188,0.03125,0.2827148,0.0639648,0.4321289,0.0976563
		c0.003418,0.0004883,0.0083008,0.0019531,0.0117188,0.0024414c1.8139648,0.3930664,4.265625,0.8305664,6.4760742,1.2143555
		c-0.0449219-0.0854492-0.3046875-0.4228516-0.6459961-0.831543C70.9775391,21.1347656,69.2397461,18.9873047,67.5058594,16.8242188
		z"/>
	<path fill="none" d="M95.3798828,26.1499023c-0.574707-0.8774414-2.9526367-5.4150391-3.7182617-7.0898438
		c-0.277832-0.6113281-0.378418-0.8037109-0.4731445-0.8110352c-0.0307617-0.0019531-0.0664063,0.0166016-0.1025391,0.0473633
		c-0.0893555,0.0742188-0.574707,0.4790039-1.0791016,0.9042969c-2.1098633,1.7792969-4.4814453,3.4243164-6.8310547,4.7314453
		c-0.2573242,0.1425781-0.4624023,0.2758789-0.4941406,0.3198242c3.8242188,0.6352539,7.8955078,1.2900391,12.8051758,2.0610352
		C95.4824219,26.2788086,95.4277344,26.2231445,95.3798828,26.1499023z"/>
	<path fill="none" d="M89.3647461,17.8227539c0.7895508-0.3955078,1.4213867-0.7333984,1.4018555-0.7504883
		c-0.019043-0.0175781-0.6435547-0.0839844-1.3881836-0.1455078c-6.5917969-0.5473633-18.5170898-2.8251953-23.2749023-4.4448242
		l-0.8666992-0.2949219l1.1577148,1.0869141c1.1928711,1.1186523,4.2768555,4.0771484,8.2285156,7.9008789L76.7607422,23.25
		c0.7275391,0.1254883,1.4541016,0.25,2.1811523,0.3735352c0.230957-0.1005859,0.7495117-0.3925781,1.3217773-0.7514648
		C82.6850586,21.3569336,86.1850586,19.4150391,89.3647461,17.8227539z"/>
	<path fill="none" d="M112.1308594,86.8212891c0.0546875,0,0.0615234-0.59375,0.0234375-1.5185547
		c-0.1650391-3.8574219-0.7451172-9.6708984-1.0625-10.9609375c-4.34375,1.3242188-8.5371094,2.6699219-12.4599609,4.0029297
		c0.7539063,0.5791016,4.921875,3.3505859,7.1357422,4.7402344
		C108.3339844,84.6953125,111.953125,86.8212891,112.1308594,86.8212891z"/>
	<path fill="none" d="M85.9018555,93.9902344c1.0180664,1.1826172,4.0834961,4.1689453,4.1728516,4.0654297
		c0.0371094-0.0429688,0.2666016-0.7519531,0.5102539-1.5761719c1.0258789-3.4443359,1.6669922-6.4755859,2.059082-9.7529297
		c0.1474609-1.234375,0.2407227-5.4345703,0.1577148-6.3330078c-0.7797852,0.2832031-1.5478516,0.5664063-2.2944336,0.8466797
		c-3.4614258,1.3007813-6.7661133,2.5927734-9.940918,3.8837891c0.1513672,0.5048828,0.7861328,2.0224609,1.2138672,2.8642578
		C82.7836914,89.9658203,84.1611328,91.9707031,85.9018555,93.9902344z"/>
	<path fill="none" d="M89.0932617,15.027832c0.9833984,0.2744141,0.9707031,0.4189453,0.1450195-2.0444336
		c-1.0966797-3.269043-1.7978516-6.3066406-2.1806641-9.4384766c-0.090332-0.7436523-0.1816406-1.3691406-0.1972656-1.3876953
		c-0.0019531-0.0039063-0.012207-0.0039063-0.0332031,0C86.215332,2.2675781,77.7944336,5.7729492,74.703125,7.2114258
		c-2.4111328,1.1220703-7.8496094,3.9711914-7.7558594,4.0649414c0.0161133,0.0161133,1.0092773,0.1630859,2.2045898,0.3286133
		C76.5620117,12.6313477,86.8056641,14.3896484,89.0932617,15.027832z"/>
	<path fill="none" d="M93.2304688,97.0859375c-0.1835938,0.6767578-0.3051758,1.2275391-0.2666016,1.2275391
		c0.0361328,0,0.9575195-0.3935547,2.043457-0.8759766c6.2348633-2.7705078,11.3129883-5.4980469,15.3979492-8.2714844
		c1.9150391-1.3017578,1.8203125-1.1611328,0.9882813-1.5244141c-2.6826172-1.1708984-8.9443359-4.65625-13.5683594-7.5527344
		c-0.7670898-0.4804688-1.2583008-0.7734375-1.5664063-0.9257813c-0.203125,0.0703125-0.4033203,0.1416016-0.6049805,0.2119141
		c-0.0273438,0.2919922-0.0307617,0.8525391-0.0366211,1.9609375C95.59375,85.8574219,94.7407227,91.4980469,93.2304688,97.0859375z
		"/>
	<path fill="none" d="M76.4116211,88.8564453c-2.2304688,5.6845703-6.2163086,13.7226563-8.8481445,17.8320313
		c-0.590332,0.9199219-0.6513672,1.0449219-0.449707,0.9707031c0.065918-0.0253906,1.7744141-0.5771484,3.793457-1.2294922
		c5.2958984-1.7119141,9.9101563-3.3203125,14.1459961-4.9277344c3.6547852-1.3857422,3.6074219-1.3652344,3.465332-1.4912109
		c-0.0717773-0.0625-0.5698242-0.4892578-1.1030273-0.9462891c-1.659668-1.4248047-3.6445313-3.5683594-5.1674805-5.5810547
		c-1.3930664-1.8417969-2.9990234-4.7226563-3.7128906-6.6621094c-0.1171875-0.3173828-0.2363281-0.6054688-0.3037109-0.7373047
		c-0.3105469,0.1289063-0.6220703,0.2578125-0.9301758,0.3867188c-0.0249023,0.0556641-0.0473633,0.1162109-0.0698242,0.1914063
		C77.1660156,86.8828125,76.7988281,87.8701172,76.4116211,88.8564453z"/>
	<path fill="none" d="M93.1660156,29.7529297c1.5571289,3.6279297,2.4077148,7.9223633,2.409668,12.1767578
		c0,0.7832031,0.019043,1.425293,0.0375977,1.425293c0.0195313,0,0.9750977-0.6279297,2.1245117-1.3969727
		c4.3618164-2.9199219,8.7514648-5.3041992,14.675293-7.9760742c1.4980469-0.675293,1.9648438-0.9296875,1.8339844-0.984375
		c-0.2734375-0.1132813-4.7841797-1.0581055-7.9013672-1.6552734c-4.1826172-0.800293-13.387207-2.3945313-13.456543-2.3300781
		C92.8725586,29.027832,92.9980469,29.3623047,93.1660156,29.7529297z"/>
	<path fill="none" d="M80.6889648,69.1479492c0.7602539-0.5483398,1.3476563-1.027832,1.3032227-1.0644531
		c-1.1318359-0.9438477-2.4155273-1.8149414-3.84375-2.6064453c-0.5830078-0.3232422-1.1069336-0.5864258-1.1630859-0.5864258
		s-0.2695313,0.5107422-0.4741211,1.1347656c-0.4907227,1.5024414-1.1806641,3.2294922-1.871582,4.6850586
		c-0.7758789,1.6352539-1.5205078,2.9169922-3,5.1801758c-0.222168,0.3398438-0.1567383,0.2919922,1.8193359-1.2797852
		C75.331543,73.1206055,78.5654297,70.6801758,80.6889648,69.1479492z"/>
	<path fill="none" d="M77.8339844,36.7626953c1.6264648-1.6191406,3.8623047-3.3999023,6.3491211-5.0639648
		c0.9946289-0.6665039,3.972168-2.4477539,4.706543-2.8178711c0.3320313-0.1669922,0.6049805-0.3398438,0.6049805-0.3798828
		s-0.6005859-0.1723633-1.3310547-0.2954102c-4.3842773-0.7368164-11.2021484-2.0537109-15.0185547-2.8974609
		c-0.59375-0.1313477-1.090332-0.2143555-1.2055664-0.206543c-0.015625,0.0009766-0.0229492,0.0043945-0.0229492,0.0092773
		c0,0.0405273,0.1982422,0.5004883,0.4399414,1.0219727c1.5083008,3.2421875,3.190918,7.8481445,4.0043945,10.9677734
		c0.121582,0.4648438,0.2363281,0.84375,0.2543945,0.84375C76.6318359,37.9443359,77.1791992,37.4135742,77.8339844,36.7626953z"/>
	<path fill="none" d="M70.4204102,24.7358398c-0.0131836-0.0161133-1.128418-0.3115234-2.4750977-0.6567383
		c-1.0556641-0.2695313-2.050293-0.534668-2.9545898-0.7875977c-1.2905273-0.3608398-2.3994141-0.6948242-3.2397461-0.9799805
		c-0.4555664-0.1547852-0.8305664-0.2700195-0.84375-0.2578125c0,0.0180664,0.4848633,0.4165039,1.0825195,0.8867188
		c4.7939453,3.7675781,8.9404297,8.449707,11.5585938,13.0532227c0.28125,0.4946289,0.53125,0.8837891,0.5532227,0.862793
		c0.0205078-0.0209961-0.2026367-0.9023438-0.4970703-1.9599609C72.8325195,32.1254883,70.5698242,24.9033203,70.4204102,24.7358398
		z"/>
	<path fill="none" d="M62.9326172,87.6542969c5.3061523-3.3662109,9.5898438-6.8242188,13.9116211-11.234375
		c1.7260742-1.7612305,4.2895508-4.6601563,4.2016602-4.7490234c-0.0893555-0.0883789-7.6708984,5.046875-10.9863281,7.4404297
		C68.8291016,80,68.6674805,80.1542969,67.8276367,81.2451172c-1.2763672,1.6572266-2.4003906,2.9863281-3.8681641,4.5859375
		c-2.3300781,2.5380859-2.5229492,2.7568359-2.3774414,2.671875C61.6616211,88.4570313,62.2685547,88.0751953,62.9326172,87.6542969
		z"/>
	<path fill="none" d="M140.8730469,47.0732422c0.9277344-1.3271484,2.4150391-3.652832,2.3691406-3.699707
		c-0.0419922-0.0415039-2.9375,0.7919922-5.6650391,1.6274414c-5.1689453,1.5844727-12.0771484,4.0478516-17.1318359,6.1044922
		c-2.9033203,1.1816406-6.7080078,2.8129883-6.7060547,2.8745117c0.0019531,0.0263672,0.2060547,0.1987305,0.4550781,0.3847656
		c0.25,0.1855469,1,0.7924805,1.6650391,1.3457031c3.5615234,2.9638672,6.5478516,6.2651367,9.0634766,10.0249023
		c0.3291016,0.4912109,0.6162109,0.8955078,0.6376953,0.8955078c0.0224609,0,0.7695313-0.9257813,1.6591797-2.0541992
		c0.8916016-1.1289063,3.5351563-4.4648438,5.8798828-7.4130859
		C137.5634766,51.5512695,139.5224609,49.0097656,140.8730469,47.0732422z"/>
	<path fill="none" d="M118.7949219,63.1943359c-2.2636719-1.8857422-5.2304688-4.0751953-7.7363281-5.7021484l-1.0927734-0.7080078
		l-0.7890625,1.1811523c-3.9052734,5.8374023-9.1318359,11.8378906-15.050293,17.2832031
		c-2.3071289,2.1245117-2.1806641,2.0063477-2.0537109,2.0063477c0.0610352,0,0.9482422-0.3115234,1.9750977-0.6894531
		c9.25-3.3989258,17.1787109-5.934082,27.4433594-8.7817383l1.8134766-0.5063477l-0.2714844-0.2861328
		C122.5263672,66.4575195,120.0625,64.2495117,118.7949219,63.1943359z"/>
	<path fill="none" d="M161.2099609,55.6870117c-4.1953125-4.1196289-9.5322266-8.125-14.9765625-11.2436523
		c-0.6513672-0.3730469-1.1933594-0.6357422-1.2744141-0.6191406c-0.0068359,0.0009766-0.0087891,0.0009766-0.0097656,0.0043945
		c-0.0195313,0.0581055-0.4824219,1.0083008-1.0273438,2.1103516c-3.6601563,7.3964844-6.7714844,11.5371094-13.59375,18.0932617
		c-1.0976563,1.0561523-1.9609375,1.9228516-1.9160156,1.9228516c0.0429688,0,0.7246094-0.1572266,1.5136719-0.3461914
		c11.6132813-2.7929688,23.6767578-4.7998047,33.1123047-5.5097656c1.2216797-0.0922852,2.2304688-0.171875,2.2402344-0.1782227
		C165.3232422,59.8955078,162.4042969,56.8583984,161.2099609,55.6870117z"/>
	<path fill="none" d="M100.5048828,51.4580078c-2.1962891-1.0996094-5.1054688-2.4536133-5.4165039-2.5224609
		c-0.0693359-0.0161133-0.1704102,0.2172852-0.2519531,0.5996094c-0.9316406,4.2841797-2.5493164,8.668457-4.5532227,12.340332
		c-0.6020508,1.1005859-0.6381836,1.1821289-0.5449219,1.1821289c0.0283203,0,0.9287109-0.5400391,2.0024414-1.1958008
		c3.7646484-2.2998047,7.371582-4.2890625,11.581543-6.3955078c1.3291016-0.6655273,2.4003906-1.2246094,2.3818359-1.2421875
		C105.5527344,54.081543,102.5117188,52.4624023,100.5048828,51.4580078z"/>
	<path fill="none" d="M113.4306641,50.7919922c0.0400391,0,0.6152344-0.2202148,1.2744141-0.487793
		c7.9482422-3.2260742,16.1992188-5.777832,25.8271484-7.9897461l1.1533203-0.2675781l-1.6357422-0.7407227
		c-3.9355469-1.7871094-10.0009766-4.0029297-15.2587891-5.5751953c-2.1103516-0.6308594-6.1923828-1.7436523-6.3984375-1.7436523
		c-0.0546875,0-0.1298828,0.3334961-0.1650391,0.7451172c-0.4013672,4.5229492-1.9443359,9.8486328-4.3320313,14.9243164
		C113.6015625,50.2807617,113.3896484,50.7919922,113.4306641,50.7919922z"/>
	<path fill="none" d="M97.7753906,45.3950195c0.0390625,0.0366211,0.8081055,0.3686523,1.7114258,0.7407227
		c3.2368164,1.3354492,6.1860352,2.7763672,8.7905273,4.2998047c0.6914063,0.4033203,1.296875,0.7231445,1.3457031,0.7080078
		s0.4677734-0.6987305,0.9375-1.5195313c2.6630859-4.6552734,4.8222656-9.6083984,5.6357422-12.9458008
		c0.2626953-1.0722656,0.5644531-2.887207,0.4931641-2.9584961c-0.0869141-0.0859375-5,2.6513672-8.0507813,4.4824219
		C104.8232422,40.4916992,97.6279297,45.2563477,97.7753906,45.3950195z"/>
	<path fill="none" d="M108.0878906,92.4902344c-3.6533203,2.4414063-7.8549805,4.9042969-12.2558594,7.1875
		c-1.1098633,0.5771484-2.0395508,1.0693359-2.0625,1.0927734c-0.0878906,0.0878906,3.0639648,2.0234375,5.2421875,3.2167969
		c3.2890625,1.8037109,6.9355469,3.3632813,10.2998047,4.4072266c0.7617188,0.2363281,1.3935547,0.4208984,1.4033203,0.4121094
		c0.0078125-0.0087891,0.1259766-0.7314453,0.2617188-1.6074219c0.7753906-4.9941406,1.3085938-11.8388672,1.3125-16.8378906
		v-0.9511719l-0.3232422,0.2802734C111.5107422,90.0917969,109.4589844,91.5742188,108.0878906,92.4902344z"/>
	<path fill="none" d="M78.7719727,39.4536133c0,0.046875,1.5571289,0.515625,3.4545898,1.0419922
		c3.3432617,0.9248047,7.2441406,2.0732422,9.6313477,2.8359375l1.1577148,0.3754883l0.0703125-0.2348633
		c0.0375977-0.1274414,0.0957031-0.9985352,0.1318359-1.9360352c0.1264648-3.3696289-0.2539063-7.0117188-1.0737305-10.2543945
		c-0.4282227-1.6943359-0.6699219-2.4472656-0.796875-2.4897461c-0.2177734-0.0727539-6.3383789,4.6884766-8.6132813,6.7001953
		C81.5429688,36.5454102,78.7719727,39.3154297,78.7719727,39.4536133z"/>
	<path fill="none" d="M78.2841797,58.3217773c0.0415039,0,0.8955078-0.7885742,1.8984375-1.7583008
		c3.3862305-3.2700195,6.2119141-5.8334961,9.1430664-8.284668c0.7290039-0.6108398,1.3276367-1.1313477,1.3276367-1.1582031
		c-0.0039063-0.1391602-5.4248047-1.953125-7.9716797-2.6679688c-1.6948242-0.4760742-4.8022461-1.2041016-4.8671875-1.1396484
		c-0.0219727,0.0224609,0.0317383,0.5537109,0.1210938,1.1772461c0.7109375,4.9199219,0.8208008,9.7529297,0.3100586,13.5175781
		C78.2231445,58.1801758,78.2416992,58.3217773,78.2841797,58.3217773z"/>
	<path fill="none" d="M66.6923828,87.4482422c-0.8457031,0.6142578-1.5375977,1.1347656-1.5375977,1.1582031
		c0,0.0244141,0.8999023-0.4091797,2.0019531-0.9599609c1.1020508-0.5517578,2.7905273-1.359375,3.7470703-1.796875
		c3.4165039-1.5654297,8.4760742-3.6679688,13.972168-5.8007813l3.0625-1.1855469l-0.0517578-0.4462891
		c-0.253418-2.0712891-1.2314453-4.6162109-2.5087891-6.5263672c-0.6054688-0.9047852-0.7509766-1.0952148-0.8535156-1.0820313
		c-0.0136719,0.0009766-0.0283203,0.0048828-0.0415039,0.0131836c-0.0532227,0.0332031-0.4775391,0.5273438-0.9418945,1.0976563
		C79.1835938,77.2480469,73.3999023,82.5791016,66.6923828,87.4482422z"/>
	<path fill="none" d="M105.2871094,57.9560547c-0.0546875-0.0537109-4.3945313,2.1513672-7.2211914,3.6669922
		c-4.1157227,2.2060547-10.644043,5.9282227-11.0654297,6.3110352c-0.1054688,0.0961914-0.0195313,0.3466797,0.4916992,1.3833008
		c1.2128906,2.4545898,1.8984375,5.3530273,1.9038086,8.0644531c0.0009766,0.5146484,0.0361328,0.8408203,0.0942383,0.8193359
		c0.0522461-0.0166016,1.0146484-1.1191406,2.1381836-2.4462891c2.6879883-3.1782227,6.597168-8.0605469,8.7910156-10.9814453
		C102.2529297,62.3320313,105.3398438,58.0097656,105.2871094,57.9560547z"/>
	<path fill="none" d="M84.0273438,64.6147461l1.2563477,1.2138672l0.5541992-0.9047852
		c0.3037109-0.4995117,0.8398438-1.4233398,1.190918-2.0537109c1.4897461-2.6865234,3.0405273-6.2568359,3.956543-9.0961914
		c0.4780273-1.480957,1.2333984-4.2529297,1.1733398-4.3134766c-0.0541992-0.0541992-4.5004883,3.5024414-6.6123047,5.2885742
		c-2.9506836,2.4951172-6.7734375,5.9711914-6.7705078,6.1567383c0,0.0415039,0.4868164,0.3256836,1.0830078,0.6328125
		C81.3779297,62.3198242,82.5668945,63.1987305,84.0273438,64.6147461z"/>
	<path fill="#273035" d="M112.1542969,85.3027344c0.0380859,0.9248047,0.03125,1.5185547-0.0234375,1.5185547
		c-0.1777344,0-3.796875-2.1259766-6.3632813-3.7363281c-2.2138672-1.3896484-6.3818359-4.1611328-7.1357422-4.7402344
		c-0.8032227,0.2734375-1.5932617,0.5458984-2.3730469,0.8183594c0.3081055,0.1523438,0.7993164,0.4453125,1.5664063,0.9257813
		c4.6240234,2.8964844,10.8857422,6.3818359,13.5683594,7.5527344c0.8320313,0.3632813,0.9267578,0.2226563-0.9882813,1.5244141
		c-4.0849609,2.7734375-9.1630859,5.5009766-15.3979492,8.2714844C93.9213867,97.9199219,93,98.3134766,92.9638672,98.3134766
		c-0.0385742,0,0.0830078-0.5507813,0.2666016-1.2275391c1.5102539-5.5878906,2.3632813-11.2285156,2.3867188-15.75
		c0.0058594-1.1083984,0.0092773-1.6689453,0.0366211-1.9609375c-0.9707031,0.3408203-1.9243164,0.6806641-2.8520508,1.0185547
		c0.0830078,0.8984375-0.0102539,5.0986328-0.1577148,6.3330078c-0.3920898,3.2773438-1.0332031,6.3085938-2.059082,9.7529297
		c-0.2436523,0.8242188-0.4731445,1.5332031-0.5102539,1.5761719c-0.0893555,0.1035156-3.1547852-2.8828125-4.1728516-4.0654297
		c-1.7407227-2.0195313-3.1181641-4.0244141-4.121582-6.0019531c-0.4277344-0.8417969-1.0625-2.359375-1.2138672-2.8642578
		c-0.7866211,0.3203125-1.5644531,0.640625-2.3349609,0.9599609c0.0673828,0.1318359,0.1865234,0.4199219,0.3037109,0.7373047
		c0.7138672,1.9394531,2.3198242,4.8203125,3.7128906,6.6621094c1.5229492,2.0126953,3.5078125,4.15625,5.1674805,5.5810547
		c0.5332031,0.4570313,1.03125,0.8837891,1.1030273,0.9462891c0.1420898,0.1259766,0.1894531,0.1054688-3.465332,1.4912109
		c-4.2358398,1.6074219-8.8500977,3.2158203-14.1459961,4.9277344c-2.019043,0.6523438-3.7275391,1.2041016-3.793457,1.2294922
		c-0.2016602,0.0742188-0.140625-0.0507813,0.449707-0.9707031c2.6318359-4.109375,6.6176758-12.1474609,8.8481445-17.8320313
		c0.387207-0.9863281,0.7543945-1.9736328,0.8198242-2.1943359c0.0224609-0.0751953,0.0449219-0.1357422,0.0698242-0.1914063
		c-1.2666016,0.53125-2.5092773,1.0625-3.7348633,1.59375c-0.2519531,0.6347656-1.1875,2.5888672-2.1196289,4.4082031
		c-2.168457,4.2285156-4.5585938,8.390625-7.7324219,13.4697266c-0.5478516,0.8759766-1.0522461,1.6787109-1.1206055,1.7763672
		c-0.112793,0.1640625-0.1591797,0.1103516-0.5063477-0.5800781c-0.7597656-1.5117188-1.3964844-3.4179688-1.7260742-5.1904297
		c-0.3256836-1.7558594-0.2705078-4.7929688,0.1220703-6.6777344c0.1557617-0.7470703,0.2265625-1.0820313,0.3574219-1.2880859
		c-1.3828125,0.6904297-2.7412109,1.3857422-4.0776367,2.0869141c0.0283203,0.0810547-0.0107422,0.3300781-0.1201172,0.9599609
		c-0.0991211,0.5742188-0.2119141,1.6572266-0.2529297,2.40625c-0.1801758,3.2763672,0.3515625,5.6933594,1.9785156,9.0009766
		c0.4526367,0.9208984,0.8066406,1.6865234,0.7875977,1.703125c-0.1630859,0.1347656-14.9819336,4.4716797-19.6411133,5.7470703
		c-1.3813477,0.3798828-2.5883789,0.7119141-2.6865234,0.7421875c-0.1621094,0.0488281-0.1767578,0.0117188-0.1176758-0.3662109
		c0.5107422-3.2880859,3.0185547-7.6025391,6.5224609-11.2255859c2.015625-2.0830078,3.6870117-3.4316406,6.1533203-4.9306641
		c-1.8300781,1.0498047-2.9321289,1.7519531-3.8310547,2.4267578l-2.0415039,0.6728516
		c-0.0898438,0.0722656-0.1938477,0.1582031-0.2807617,0.2275391c-1.8110352,1.4433594-4.503418,4.1152344-5.8798828,5.828125
		c-2.0473633,2.5488281-3.6489258,5.2675781-4.3369141,7.3564453c-1.2392578,3.7607422-0.6357422,7.5703125,1.7529297,11.0849609
		c3.0522461,4.4902344,9.1264648,9.0527344,16.1904297,12.1572266c3.6040039,1.5849609,9.6850586,3.6279297,14.2451172,4.7783203
		c7.5986328,1.9199219,22.2861328,4.0048828,30.3740234,4.3144531c1.6401367,0.0625,3.824707,0.0566406,3.9243164-0.0097656
		c0.1777344-0.1171875,1.4370117-2.5009766,2.8979492-5.4853516c4.9707031-10.1552734,8.5673828-19.6748047,10.5029297-27.8046875
		c1.171875-4.9238281,2.0839844-11.4873047,2.6767578-19.2714844c0.1660156-2.1806641,0.2265625-9.4521484,0.0986328-11.9238281
		c-0.2070313-4.0214844-0.5615234-7.2998047-1.1298828-10.5161133c-0.0410156-0.2319336-0.0683594-0.4487305-0.0820313-0.6152344
		c-1.1328125,0.3369141-2.2597656,0.675293-3.3759766,1.0151367
		C111.4091797,75.6318359,111.9892578,81.4453125,112.1542969,85.3027344z M66.8276367,110.9179688
		c7.309082-2.0029297,13.5063477-4.1435547,19.6699219-6.7998047c0.8725586-0.375,1.5966797-0.671875,1.6132813-0.65625
		c0.0141602,0.015625-0.1601563,0.4863281-0.3901367,1.0410156c-1.9526367,4.7226563-4.5107422,9.8730469-7.7734375,15.6601563
		c-0.8310547,1.4726563-1.5302734,2.6757813-1.5571289,2.6738281c-0.0258789-0.0039063-0.7026367-0.4033203-1.5-0.8916016
		c-4.7524414-2.9091797-8.9575195-6.4902344-11.7172852-9.9736328l-0.3945313-0.4912109L66.8276367,110.9179688z
		 M45.7749023,132.1894531l-1.003418-0.8427734c-1.1777344-0.9892578-3.2382813-3.0878906-4.1738281-4.2529297
		c-1.9233398-2.3984375-3.2265625-4.9208984-3.7412109-7.2402344c-0.2373047-1.0693359-0.2441406-1.6152344-0.0185547-1.6826172
		c0.3256836-0.0986328,6.3110352-1.5068359,11.9238281-2.8085938c3.1176758-0.7226563,6.7216797-1.5693359,8.0131836-1.8798828
		c1.2905273-0.3115234,2.3598633-0.5556641,2.3725586-0.5439453c0.0546875,0.0517578-2.7993164,4.1357422-6.7851563,9.7158203
		c-1.3852539,1.9375-3.0126953,4.2226563-3.6157227,5.0771484c-0.6015625,0.8535156-1.5126953,2.2050781-2.0292969,3.0058594
		L45.7749023,132.1894531z M47.3125,133.3623047l-0.4121094-0.2949219l0.6464844-0.9335938
		c2.1005859-3.0419922,4.7387695-6.3867188,10.512207-13.3349609l3.9580078-4.7626953l0.7216797,0.8056641
		c3.2280273,3.5957031,6.5117188,6.2802734,10.5170898,8.5947266c0.7075195,0.4082031,1.2460938,0.7626953,1.2001953,0.7919922
		c-0.1660156,0.1025391-13.8515625,4.96875-20.1806641,7.1738281c-3.5693359,1.2441406-6.5009766,2.2578125-6.5170898,2.2558594
		C47.7416992,133.6552734,47.5395508,133.5244141,47.3125,133.3623047z M66.4570313,142.2158203l-0.3334961-0.0898438
		c-0.8027344-0.2177734-6.46875-2.21875-7.9658203-2.8125c-1.8554688-0.7373047-3.7880859-1.6259766-5.2133789-2.3964844
		c-1.7817383-0.9638672-4.0410156-2.3916016-3.8642578-2.4482422c0.0517578-0.0166016,3.1166992-0.8544922,6.8081055-1.8603516
		c9.8212891-2.6777344,15.253418-4.2158203,18.815918-5.3271484c0.6660156-0.2089844,1.2211914-0.3632813,1.234375-0.3515625
		c0.0283203,0.0283203-1.5610352,2.5732422-4.3569336,6.9755859c-1.1796875,1.8603516-2.519043,3.9765625-2.9765625,4.7041016
		c-0.4594727,0.7275391-1.1318359,1.8330078-1.4912109,2.4609375L66.4570313,142.2158203z M68.2480469,142.6269531
		c0-0.046875,0.5375977-0.7275391,1.190918-1.5078125c3.2246094-3.8583984,6.4282227-8.1660156,9.1005859-12.2392578
		c0.7324219-1.1142578,1.3442383-2.0439453,1.3608398-2.0625c0.015625-0.0205078,1.015625,0.3349609,2.2265625,0.7880859
		c2.9179688,1.0908203,5.2089844,1.8027344,8.3085938,2.578125c3.8061523,0.953125,9.3085938,1.9052734,12.5654297,2.1796875
		c0.5,0.0419922,0.7568359,0.0996094,0.6757813,0.1503906c-0.1513672,0.0966797-3.4501953,1.1982422-5.8745117,1.9609375
		c-3.8500977,1.2089844-15.6142578,4.6845703-25.2070313,7.4453125c-1.7802734,0.5126953-3.3012695,0.9443359-3.3813477,0.9609375
		C68.9995117,142.9248047,68.2480469,142.7285156,68.2480469,142.6269531z M98.9921875,146.9648438
		c-0.296875,0.7158203-0.4067383,0.8886719-0.5625,0.8808594c-0.3754883-0.015625-5.6474609-0.7529297-8.8388672-1.2363281
		c-5.5839844-0.8486328-14.940918-2.4824219-17.3007813-3.0205078l-0.5488281-0.1210938l3.3476563-0.7548828
		c7.1757813-1.6181641,10.6220703-2.4853516,14.1181641-3.5546875c4.4101563-1.3496094,8.7758789-3.0332031,13.1845703-5.0820313
		c0.6982422-0.3251953,1.2910156-0.5732422,1.4394531-0.6064453c0.0214844-0.0039063,0.03125-0.0039063,0.0332031,0
		C103.9570313,133.7021484,100.3212891,143.7734375,98.9921875,146.9648438z M108.1865234,119.6523438
		c-0.7900391,2.7978516-1.4521484,4.9873047-2.6816406,8.8671875c-0.5429688,1.7128906-1.0087891,3.1113281-1.0371094,3.1025391
		c-0.0263672-0.0058594-0.15625-0.0322266-0.2890625-0.0556641c-6.6577148-1.2041016-12.6206055-2.8837891-18.2070313-5.1289063
		c-1.5625-0.6279297-3.8188477-1.6279297-3.9394531-1.7451172c-0.0390625-0.0380859,1.3105469-0.6757813,2.9970703-1.4111328
		c10.2021484-4.4511719,20.7714844-9.5205078,24.3867188-11.6933594c0.4345703-0.2617188,0.7558594-0.4130859,0.828125-0.3984375
		c0.0117188,0.0019531,0.015625,0.0087891,0.015625,0.0185547
		C110.2597656,111.7060547,109.1289063,116.3154297,108.1865234,119.6523438z M109.8613281,110.1298828
		c-2.9755859,1.6503906-12.7719727,5.7265625-22.777832,9.4804688c-1.4614258,0.5488281-2.8862305,1.0859375-3.1650391,1.1953125
		c-0.2792969,0.1103516-0.5073242,0.1865234-0.5073242,0.1640625s0.4140625-0.8164063,0.9204102-1.7626953
		c2.809082-5.2519531,5.6123047-11.6347656,7.0522461-16.0634766c0.1450195-0.4521484,0.2749023-0.8320313,0.2895508-0.8486328
		c0.0141602-0.0166016,0.5629883,0.2763672,1.21875,0.6552734c4.7866211,2.7685547,11.4663086,5.3652344,17.1606445,6.6689453
		l0.5166016,0.1171875L109.8613281,110.1298828z M112.2890625,90.3613281
		c-0.0039063,4.9990234-0.5371094,11.84375-1.3125,16.8378906c-0.1357422,0.8759766-0.2539063,1.5986328-0.2617188,1.6074219
		c-0.0097656,0.0087891-0.6416016-0.1757813-1.4033203-0.4121094c-3.3642578-1.0439453-7.0107422-2.6035156-10.2998047-4.4072266
		c-2.1782227-1.1933594-5.3300781-3.1289063-5.2421875-3.2167969c0.0229492-0.0234375,0.9526367-0.515625,2.0625-1.0927734
		c4.4008789-2.2832031,8.6025391-4.7460938,12.2558594-7.1875c1.3710938-0.9160156,3.4228516-2.3984375,3.8779297-2.7998047
		l0.3232422-0.2802734V90.3613281z"/>
	<path fill="#273035" d="M55.0170898,16.7231445c-0.0039063,0.0087891-0.0131836,0.0219727-0.0166016,0.0302734
		c-0.0849609,0.2236328-0.125,0.4858398-0.1264648,0.7548828l0.0410156,0.0385742
		C54.8945313,17.1928711,54.953125,16.9121094,55.0170898,16.7231445z"/>
	<path fill="#273035" d="M58.9121094,19.3608398l0.003418-0.2539063c0.015625-1.5112305,1.9208984-3.7397461,5.1533203-6.0200195
		l0.2861328-0.1972656l3.1508789,3.9345703c1.7338867,2.1630859,3.4716797,4.3105469,3.8588867,4.7729492
		c0.3413086,0.4086914,0.6010742,0.7460938,0.6459961,0.831543c0.9541016,0.1655273,1.8676758,0.3222656,2.6582031,0.4594727
		c0.7026367,0.1225586,1.3979492,0.2426758,2.0917969,0.3618164l-2.1376953-2.0751953
		c-3.9516602-3.8237305-7.0356445-6.7822266-8.2285156-7.9008789l-1.1577148-1.0869141l0.8666992,0.2949219
		c4.7578125,1.6196289,16.6831055,3.8974609,23.2749023,4.4448242c0.7446289,0.0615234,1.3691406,0.1279297,1.3881836,0.1455078
		c0.0195313,0.0170898-0.6123047,0.3549805-1.4018555,0.7504883c-3.1796875,1.5922852-6.6796875,3.5341797-9.1010742,5.0493164
		c-0.5722656,0.3588867-1.0908203,0.6508789-1.3217773,0.7514648c1.234375,0.2094727,2.4741211,0.4179688,3.7397461,0.628418
		c0.0317383-0.0439453,0.2368164-0.1772461,0.4941406-0.3198242c2.3496094-1.3071289,4.7211914-2.9521484,6.8310547-4.7314453
		c0.5043945-0.425293,0.9897461-0.8300781,1.0791016-0.9042969c0.0361328-0.0307617,0.0717773-0.0493164,0.1025391-0.0473633
		c0.0947266,0.0073242,0.1953125,0.199707,0.4731445,0.8110352c0.765625,1.6748047,3.1435547,6.2124023,3.7182617,7.0898438
		c0.0478516,0.0732422,0.1025391,0.1289063,0.1069336,0.1630859c1.0839844,0.1704102,2.203125,0.3457031,3.3754883,0.5283203
		c0.015625,0.0024414,0.0322266,0.0048828,0.0478516,0.0073242l-0.4863281-0.8535156
		c-2.6425781-4.6630859-5.5639648-10.4335938-7.2587891-14.3383789c-1.3125-3.0239258-2.5742188-6.5078125-3.2724609-9.0307617
		c-0.4145508-1.4985352-0.4584961-1.5957031-0.6894531-1.6220703c-0.4951172-0.0581055-8.4521484,2.8081055-13.5644531,4.8852539
		c-6.9267578,2.8144531-12.3051758,5.5112305-15.6230469,7.8398438c-1.0786133,0.7573242-2.3994141,2.0419922-2.8676758,2.7539063
		C55.5947266,18.0991211,57.3759766,18.7871094,58.9121094,19.3608398z M74.703125,7.2114258
		c3.0913086-1.4384766,11.512207-4.9438477,12.1240234-5.0541992c0.0209961-0.0039063,0.03125-0.0039063,0.0332031,0
		c0.015625,0.0185547,0.1069336,0.644043,0.1972656,1.3876953c0.3828125,3.1318359,1.0839844,6.1694336,2.1806641,9.4384766
		c0.8256836,2.4633789,0.8383789,2.3188477-0.1450195,2.0444336c-2.2875977-0.6381836-12.53125-2.3964844-19.9414063-3.4228516
		c-1.1953125-0.1655273-2.1884766-0.3125-2.2045898-0.3286133C66.8535156,11.1826172,72.2919922,8.3334961,74.703125,7.2114258z"/>
	<path fill="#273035" d="M63.5244141,20.7475586c0.7773438,0.1918945,1.4775391,0.3515625,1.9985352,0.4643555
		c-0.1494141-0.0336914-0.2954102-0.0664063-0.4321289-0.0976563
		C64.4912109,20.9765625,63.9794922,20.8569336,63.5244141,20.7475586z"/>
	<path fill="#1B2328" d="M167.6103516,60.8022461l-0.3134766-0.4921875
		c-1.7939453-2.7880859-3.0195313-4.5078125-4.4921875-6.3300781c-4.3046875-5.3217773-9.5136719-9.6630859-15.8955078-13.2363281
		c-8.7705078-4.9106445-20.1474609-8.7270508-34.5283203-11.5864258c-2.7109375-0.5380859-8.6347656-1.5541992-13.4707031-2.3085938
		c-0.015625-0.0024414-0.0322266-0.0048828-0.0478516-0.0073242c-1.1723633-0.1826172-2.2915039-0.3579102-3.3754883-0.5283203
		c-4.909668-0.7709961-8.980957-1.4257813-12.8051758-2.0610352c-1.265625-0.2104492-2.5053711-0.4189453-3.7397461-0.628418
		C78.2148438,23.5,77.4882813,23.3754883,76.7607422,23.25c-0.6938477-0.1191406-1.3891602-0.2392578-2.0917969-0.3618164
		c-0.7905273-0.137207-1.7041016-0.2939453-2.6582031-0.4594727c-2.2104492-0.3837891-4.6621094-0.8212891-6.4760742-1.2143555
		c-0.003418-0.0004883-0.0083008-0.0019531-0.0117188-0.0024414c-0.5209961-0.112793-1.2211914-0.2724609-1.9985352-0.4643555
		c-1.2456055-0.3081055-2.6884766-0.699707-3.9165039-1.1225586c-0.2216797-0.0874023-0.4560547-0.1748047-0.6958008-0.2641602
		c-1.5361328-0.5737305-3.3173828-1.2617188-3.7641602-2.8779297c-0.003418-0.0112305-0.0102539-0.0200195-0.0131836-0.0317383
		c0,0-0.0595703,0.0996094-0.1176758,0.2719727c-0.0639648,0.1889648-0.1225586,0.4697266-0.1020508,0.8237305
		c0.0146484,0.25,0.0668945,0.5322266,0.1918945,0.8447266c0.2871094,0.7182617,1.1499023,1.5810547,2.1000977,2.4946289
		c0,0,9.9580078,9.7138672,11.1782227,11.1220703c5.5180664,6.3676758,7.9145508,12.6367188,8.1362305,21.2919922
		c0.1411133,5.5537109-0.9291992,10.4360352-3.53125,16.1108398C68.328125,79.5810547,58.5019531,90.796875,43.328125,103.2675781
		l0.1860352-0.0615234l2.0415039-0.6728516c0.8989258-0.6748047,2.0009766-1.3769531,3.8310547-2.4267578
		c1.0849609-0.6230469,2.4243164-1.3671875,4.1308594-2.3007813c1.0668945-0.5830078,2.1508789-1.1611328,3.2456055-1.7363281
		c1.3364258-0.7011719,2.6948242-1.3964844,4.0776367-2.0869141c4.0131836-2.0039063,8.234375-3.9677734,12.7255859-5.9179688
		c1.2255859-0.53125,2.4682617-1.0625,3.7348633-1.59375c0.3081055-0.1289063,0.6196289-0.2578125,0.9301758-0.3867188
		c0.7705078-0.3193359,1.5483398-0.6396484,2.3349609-0.9599609c3.1748047-1.2910156,6.4794922-2.5830078,9.940918-3.8837891
		c0.746582-0.2802734,1.5146484-0.5634766,2.2944336-0.8466797c0.9277344-0.3378906,1.8813477-0.6777344,2.8520508-1.0185547
		c0.2016602-0.0703125,0.4018555-0.1416016,0.6049805-0.2119141c0.7797852-0.2724609,1.5698242-0.5449219,2.3730469-0.8183594
		c3.9228516-1.3330078,8.1162109-2.6787109,12.4599609-4.0029297c1.1162109-0.3398438,2.2431641-0.6782227,3.3759766-1.0151367
		C132.46875,67.9780273,152.375,63.137207,165.5664063,61.1166992L167.6103516,60.8022461z M118.3925781,33.9873047
		c0.2060547,0,4.2880859,1.112793,6.3984375,1.7436523c5.2578125,1.5722656,11.3232422,3.7880859,15.2587891,5.5751953
		l1.6357422,0.7407227l-1.1533203,0.2675781c-9.6279297,2.2119141-17.8789063,4.7636719-25.8271484,7.9897461
		c-0.6591797,0.2675781-1.234375,0.487793-1.2744141,0.487793c-0.0410156,0,0.1708984-0.5112305,0.4648438-1.1352539
		c2.3876953-5.0756836,3.9306641-10.4013672,4.3320313-14.9243164
		C118.2626953,34.3208008,118.3378906,33.9873047,118.3925781,33.9873047z M116.1962891,36.6782227
		c-0.8134766,3.3374023-2.9726563,8.2905273-5.6357422,12.9458008c-0.4697266,0.8208008-0.8886719,1.5043945-0.9375,1.5195313
		s-0.6542969-0.3046875-1.3457031-0.7080078c-2.6044922-1.5234375-5.5537109-2.9643555-8.7905273-4.2998047
		c-0.9033203-0.3720703-1.6723633-0.7041016-1.7114258-0.7407227c-0.1474609-0.1386719,7.0478516-4.9033203,10.8632813-7.1928711
		c3.0507813-1.8310547,7.9638672-4.5683594,8.0507813-4.4824219
		C116.7607422,33.7910156,116.4589844,35.605957,116.1962891,36.6782227z M77.9355469,44.4902344
		c-0.0893555-0.6235352-0.1430664-1.1547852-0.1210938-1.1772461c0.0649414-0.0644531,3.1723633,0.6635742,4.8671875,1.1396484
		c2.546875,0.7148438,7.9677734,2.5288086,7.9716797,2.6679688c0,0.0268555-0.5986328,0.5473633-1.3276367,1.1582031
		c-2.9311523,2.4511719-5.7568359,5.0146484-9.1430664,8.284668c-1.0029297,0.9697266-1.8569336,1.7583008-1.8984375,1.7583008
		c-0.0424805,0-0.0610352-0.1416016-0.0385742-0.3139648C78.7563477,54.2431641,78.6464844,49.4101563,77.9355469,44.4902344z
		 M92.144043,31.2817383c0.8198242,3.2426758,1.2001953,6.8847656,1.0737305,10.2543945
		c-0.0361328,0.9375-0.0942383,1.8085938-0.1318359,1.9360352l-0.0703125,0.2348633l-1.1577148-0.3754883
		c-2.387207-0.7626953-6.2880859-1.9111328-9.6313477-2.8359375c-1.8974609-0.5263672-3.4545898-0.9951172-3.4545898-1.0419922
		c0-0.1381836,2.7709961-2.9082031,3.9619141-3.9614258c2.2749023-2.0117188,8.3955078-6.7729492,8.6132813-6.7001953
		C91.4741211,28.8344727,91.7158203,29.5874023,92.144043,31.2817383z M85.5463867,54.7490234
		c2.1118164-1.7861328,6.5581055-5.3427734,6.6123047-5.2885742c0.0600586,0.0605469-0.6953125,2.8325195-1.1733398,4.3134766
		c-0.9160156,2.8393555-2.4667969,6.409668-3.956543,9.0961914c-0.3510742,0.6303711-0.887207,1.5541992-1.190918,2.0537109
		l-0.5541992,0.9047852l-1.2563477-1.2138672c-1.4604492-1.4160156-2.6494141-2.2949219-4.168457-3.0761719
		c-0.5961914-0.3071289-1.0830078-0.5913086-1.0830078-0.6328125
		C78.7729492,60.7202148,82.5957031,57.2441406,85.5463867,54.7490234z M84.4829102,70.8217773
		c0.0131836-0.0083008,0.027832-0.012207,0.0415039-0.0131836c0.1025391-0.0131836,0.2480469,0.1772461,0.8535156,1.0820313
		c1.2773438,1.9101563,2.2553711,4.4550781,2.5087891,6.5263672l0.0517578,0.4462891l-3.0625,1.1855469
		c-5.4960938,2.1328125-10.5556641,4.2353516-13.972168,5.8007813c-0.956543,0.4375-2.6450195,1.2451172-3.7470703,1.796875
		c-1.1020508,0.5507813-2.0019531,0.984375-2.0019531,0.9599609c0-0.0234375,0.6918945-0.5439453,1.5375977-1.1582031
		c6.7075195-4.8691406,12.4912109-10.2001953,16.8486328-15.5288086
		C84.0053711,71.3491211,84.4296875,70.8549805,84.4829102,70.8217773z M89.4902344,78.2011719
		c-0.0581055,0.0214844-0.0932617-0.3046875-0.0942383-0.8193359c-0.0053711-2.7114258-0.690918-5.6098633-1.9038086-8.0644531
		c-0.5112305-1.0366211-0.597168-1.2871094-0.4916992-1.3833008c0.4213867-0.3828125,6.949707-4.1049805,11.0654297-6.3110352
		c2.8266602-1.515625,7.1665039-3.7207031,7.2211914-3.6669922c0.0527344,0.0537109-3.0341797,4.3759766-4.8676758,6.8173828
		c-2.1938477,2.9208984-6.1030273,7.8032227-8.7910156,10.9814453
		C90.5048828,77.0820313,89.5424805,78.1845703,89.4902344,78.2011719z M103.3222656,55.4663086
		c-4.2099609,2.1064453-7.8168945,4.0957031-11.581543,6.3955078c-1.0737305,0.6557617-1.9741211,1.1958008-2.0024414,1.1958008
		c-0.0932617,0-0.0571289-0.081543,0.5449219-1.1821289c2.0039063-3.671875,3.621582-8.0561523,4.5532227-12.340332
		c0.081543-0.3823242,0.1826172-0.6157227,0.2519531-0.5996094c0.3110352,0.0688477,3.2202148,1.4228516,5.4165039,2.5224609
		c2.0068359,1.0043945,5.0478516,2.6235352,5.1992188,2.7661133
		C105.7226563,54.2416992,104.6513672,54.8007813,103.3222656,55.4663086z M114.2470703,32.9975586
		c0.1308594,0.0546875-0.3359375,0.309082-1.8339844,0.984375c-5.9238281,2.671875-10.3134766,5.0561523-14.675293,7.9760742
		c-1.1494141,0.769043-2.1049805,1.3969727-2.1245117,1.3969727c-0.0185547,0-0.0375977-0.6420898-0.0375977-1.425293
		c-0.0019531-4.2543945-0.8525391-8.5488281-2.409668-12.1767578c-0.1679688-0.390625-0.293457-0.7250977-0.2768555-0.7407227
		c0.0693359-0.0644531,9.2739258,1.5297852,13.456543,2.3300781
		C109.4628906,31.9394531,113.9736328,32.8842773,114.2470703,32.9975586z M73.5483398,35.9936523
		c-2.6181641-4.6035156-6.7646484-9.2856445-11.5585938-13.0532227c-0.5976563-0.4702148-1.0825195-0.8686523-1.0825195-0.8867188
		c0.0131836-0.012207,0.3881836,0.1030273,0.84375,0.2578125c0.840332,0.2851563,1.9492188,0.6191406,3.2397461,0.9799805
		c0.9042969,0.2529297,1.8989258,0.5180664,2.9545898,0.7875977c1.3466797,0.3452148,2.4619141,0.640625,2.4750977,0.6567383
		c0.1494141,0.1674805,2.4121094,7.3896484,3.184082,10.1606445c0.2944336,1.0576172,0.5175781,1.9389648,0.4970703,1.9599609
		C74.0795898,36.8774414,73.8295898,36.4882813,73.5483398,35.9936523z M76.3608398,37.1005859
		C75.5473633,33.980957,73.8647461,29.375,72.3564453,26.1328125c-0.2416992-0.5214844-0.4399414-0.9814453-0.4399414-1.0219727
		c0-0.0048828,0.0073242-0.0083008,0.0229492-0.0092773c0.1152344-0.0078125,0.6118164,0.0751953,1.2055664,0.206543
		c3.8164063,0.84375,10.6342773,2.1606445,15.0185547,2.8974609c0.7304688,0.1230469,1.3310547,0.2553711,1.3310547,0.2954102
		s-0.2729492,0.2128906-0.6049805,0.3798828c-0.734375,0.3701172-3.7119141,2.1513672-4.706543,2.8178711
		c-2.4868164,1.6640625-4.7226563,3.4448242-6.3491211,5.0639648c-0.6547852,0.6508789-1.2021484,1.1816406-1.21875,1.1816406
		C76.597168,37.9443359,76.4824219,37.5654297,76.3608398,37.1005859z M71.6396484,75.890625
		c1.4794922-2.2631836,2.2241211-3.5449219,3-5.1801758c0.690918-1.4555664,1.3808594-3.1826172,1.871582-4.6850586
		c0.2045898-0.6240234,0.4179688-1.1347656,0.4741211-1.1347656s0.5800781,0.2631836,1.1630859,0.5864258
		c1.4282227,0.7915039,2.7119141,1.6625977,3.84375,2.6064453c0.0444336,0.0366211-0.5429688,0.5161133-1.3032227,1.0644531
		c-2.1235352,1.5322266-5.3574219,3.9726563-7.2299805,5.4628906C71.4829102,76.1826172,71.4174805,76.2304688,71.6396484,75.890625
		z M63.9594727,85.8310547c1.4677734-1.5996094,2.5917969-2.9287109,3.8681641-4.5859375
		C68.6674805,80.1542969,68.8291016,80,70.0595703,79.1113281C73.375,76.7177734,80.956543,71.5825195,81.0458984,71.6708984
		c0.0878906,0.0888672-2.4755859,2.987793-4.2016602,4.7490234c-4.3217773,4.4101563-8.6054688,7.8681641-13.9116211,11.234375
		c-0.6640625,0.4208984-1.2709961,0.8027344-1.3505859,0.8486328
		C61.4365234,88.5878906,61.6293945,88.3691406,63.9594727,85.8310547z M121.4912109,67.7836914
		c-10.2646484,2.8476563-18.1933594,5.3828125-27.4433594,8.7817383c-1.0268555,0.3779297-1.9140625,0.6894531-1.9750977,0.6894531
		c-0.1269531,0-0.253418,0.1181641,2.0537109-2.0063477c5.918457-5.4453125,11.1450195-11.4458008,15.050293-17.2832031
		l0.7890625-1.1811523l1.0927734,0.7080078c2.5058594,1.6269531,5.4726563,3.8164063,7.7363281,5.7021484
		c1.2675781,1.0551758,3.7314453,3.2631836,4.2382813,3.796875l0.2714844,0.2861328L121.4912109,67.7836914z
		 M125.5605469,66.6308594c-0.0214844,0-0.3085938-0.4042969-0.6376953-0.8955078
		c-2.515625-3.7597656-5.5019531-7.0610352-9.0634766-10.0249023c-0.6650391-0.5532227-1.4150391-1.1601563-1.6650391-1.3457031
		c-0.2490234-0.1860352-0.453125-0.3583984-0.4550781-0.3847656c-0.0019531-0.0615234,3.8027344-1.6928711,6.7060547-2.8745117
		c5.0546875-2.0566406,11.9628906-4.5200195,17.1318359-6.1044922c2.7275391-0.8354492,5.6230469-1.6689453,5.6650391-1.6274414
		c0.0458984,0.046875-1.4414063,2.3725586-2.3691406,3.699707c-1.3505859,1.9365234-3.3095703,4.4780273-7.7734375,10.090332
		c-2.3447266,2.9482422-4.9882813,6.2841797-5.8798828,7.4130859
		C126.3300781,65.7050781,125.5830078,66.6308594,125.5605469,66.6308594z M163.0380859,60.0991211
		c-9.4355469,0.7099609-21.4990234,2.7167969-33.1123047,5.5097656c-0.7890625,0.1889648-1.4707031,0.3461914-1.5136719,0.3461914
		c-0.0449219,0,0.8183594-0.8666992,1.9160156-1.9228516c6.8222656-6.5561523,9.9335938-10.6967773,13.59375-18.0932617
		c0.5449219-1.1020508,1.0078125-2.0522461,1.0273438-2.1103516c0.0009766-0.003418,0.0029297-0.003418,0.0097656-0.0043945
		c0.0810547-0.0166016,0.6230469,0.2460938,1.2744141,0.6191406c5.4443359,3.1186523,10.78125,7.1240234,14.9765625,11.2436523
		c1.1943359,1.1713867,4.1132813,4.2084961,4.0683594,4.2338867
		C165.2685547,59.9272461,164.2597656,60.0068359,163.0380859,60.0991211z"/>
</g>
</svg>
