<?xml version="1.0" encoding="utf-8"?>
<!-- Generator: Adobe Illustrator 16.0.0, SVG Export Plug-In . SVG Version: 6.00 Build 0)  -->
<!DOCTYPE svg PUBLIC "-//W3C//DTD SVG 1.1//EN" "http://www.w3.org/Graphics/SVG/1.1/DTD/svg11.dtd">
<svg version="1.1" id="Layer_3" xmlns="http://www.w3.org/2000/svg" xmlns:xlink="http://www.w3.org/1999/xlink" x="0px" y="0px"
	 width="200px" height="150px" viewBox="0 0 200 150" enable-background="new 0 0 200 150" xml:space="preserve">
<path fill="#1B2328" d="M156.7617188,114.2890625c-2.1279297,4.9150391-4.6464844,9.4394531-7.5634766,13.5986328
	c-3.9765625,5.6689453-7.2324219,9.5947266-9.7421875,11.7744141c-3.8896484,3.5771484-8.0576172,5.4091797-12.5214844,5.5136719
	c-3.203125,0-7.0673828-0.9130859-11.5654297-2.7607422c-4.5126953-1.8417969-8.6601563-2.7529297-12.4521484-2.7529297
	c-3.9770508,0-8.2412109,0.9111328-12.8041992,2.7529297c-4.5688477,1.8476563-8.25,2.8125-11.0634766,2.9082031
	c-4.2802734,0.1826172-8.5463867-1.703125-12.8041992-5.6611328c-2.7177734-2.3710938-6.1171875-6.4345703-10.1899414-12.1923828
	c-4.3696289-6.1474609-7.9614258-13.2753906-10.7758789-21.4033203c-3.0136719-8.7783203-4.5249023-17.2792969-4.5249023-25.5087891
	c0-9.4272461,2.0380859-17.5581055,6.1176758-24.371582c3.206543-5.4731445,7.4726563-9.7905273,12.8115234-12.9594727
	c5.3398438-3.1699219,11.1083984-4.784668,17.3212891-4.8876953c3.3994141,0,7.8574219,1.0512695,13.3979492,3.1176758
	c5.5234375,2.0732422,9.0712891,3.1254883,10.6264648,3.1254883c1.1621094,0,5.1035156-1.2294922,11.7822266-3.6811523
	c6.3164063-2.2729492,11.6484375-3.2143555,16.0166016-2.84375c11.8349609,0.9555664,20.7265625,5.6210938,26.6396484,14.0258789
	c-10.5849609,6.4135742-15.8203125,15.3959961-15.7167969,26.9189453
	c0.0966797,8.9765625,3.3525391,16.4453125,9.7509766,22.3759766c2.9003906,2.7519531,6.1396484,4.8798828,9.7431641,6.390625
	C158.4638672,110.0341797,157.6386719,112.2050781,156.7617188,114.2890625L156.7617188,114.2890625z M129.6171875,7.4790039
	c0,7.0351563-2.5693359,13.6040039-7.6923828,19.6835938c-6.1826172,7.2275391-13.6601563,11.4042969-21.7685547,10.7456055
	c-0.1035156-0.8442383-0.1640625-1.7324219-0.1640625-2.6660156c0-6.7539063,2.9404297-13.9819336,8.1621094-19.8911133
	c2.6064453-2.9926758,5.9208984-5.4804688,9.9414063-7.465332c4.0117188-1.9545898,7.8056641-3.0361328,11.3740234-3.2211914
	c0.1054688,0.9404297,0.1474609,1.8808594,0.1474609,2.8139648V7.4790039z"/>
</svg>
