<?xml version="1.0" encoding="utf-8"?>
<!-- Generator: Adobe Illustrator 16.0.0, SVG Export Plug-In . SVG Version: 6.00 Build 0)  -->
<!DOCTYPE svg PUBLIC "-//W3C//DTD SVG 1.1//EN" "http://www.w3.org/Graphics/SVG/1.1/DTD/svg11.dtd">
<svg version="1.1" id="Layer_2" xmlns="http://www.w3.org/2000/svg" xmlns:xlink="http://www.w3.org/1999/xlink" x="0px" y="0px"
	 width="200px" height="150px" viewBox="0 0 200 150" enable-background="new 0 0 200 150" xml:space="preserve">
<g>
	<path fill="#1B2328" d="M82.3959961,72.3789063h34.9887695c9.7392578,0,17.5146484-8.0185547,17.5146484-17.8007813V21.2226563
		c0-9.4921875-8.0068359-16.6240234-17.5146484-18.2084961c-6.0166016-1.0014648-12.2607422-1.4570313-18.25-1.4291992
		c-5.9887695,0.0283203-11.7070313,0.5385742-16.7387695,1.4291992
		c-14.8227539,2.6191406-17.5146484,8.1000977-17.5146484,18.2084961v13.3505859h35.0297852v4.4501953H64.8813477H51.7363281
		c-10.1811523,0-19.0957031,6.1186523-21.8833008,17.7597656c-3.2177734,13.3422852-3.3603516,21.6689453,0,35.6015625
		c2.4892578,10.3710938,8.4360352,17.7597656,18.6171875,17.7597656h12.0439453V94.1396484
		C60.5141602,82.578125,70.5180664,72.3789063,82.3959961,72.3789063z M80.1914063,25.6728516
		c-3.6308594,0-6.5732422-2.9750977-6.5732422-6.6547852c0-3.6923828,2.9423828-6.6953125,6.5732422-6.6953125
		c3.6181641,0,6.5732422,3.0029297,6.5732422,6.6953125C86.7646484,22.6977539,83.8095703,25.6728516,80.1914063,25.6728516z"/>
	<path fill="#1B2328" d="M169.9287109,56.7832031c-2.515625-10.1342773-7.3203125-17.7597656-17.5146484-17.7597656h-13.1464844
		V54.578125c0,12.0605469-10.2246094,22.2099609-21.8828125,22.2099609H82.3959961
		c-9.5839844,0-17.5146484,8.203125-17.5146484,17.8007813v33.3554688c0,9.4941406,8.2543945,15.078125,17.5146484,17.8007813
		c11.0893555,3.2607422,21.722168,3.8505859,34.9887695,0c8.8183594-2.5527344,17.5146484-7.6923828,17.5146484-17.8007813
		v-13.3496094H99.9111328v-4.4501953h34.9882813h17.5146484c10.1806641,0,13.9755859-7.1015625,17.5146484-17.7597656
		C173.5869141,81.4121094,173.4306641,70.859375,169.9287109,56.7832031z M119.5888672,123.4941406
		c3.6318359,0,6.5732422,2.9755859,6.5732422,6.6552734c0,3.6923828-2.9414063,6.6953125-6.5732422,6.6953125
		c-3.6181641,0-6.5732422-3.0029297-6.5732422-6.6953125C113.015625,126.4697266,115.9707031,123.4941406,119.5888672,123.4941406z"
		/>
</g>
</svg>
