<?xml version="1.0" encoding="utf-8"?>
<!-- Generator: Adobe Illustrator 16.0.0, SVG Export Plug-In . SVG Version: 6.00 Build 0)  -->
<!DOCTYPE svg PUBLIC "-//W3C//DTD SVG 1.1//EN" "http://www.w3.org/Graphics/SVG/1.1/DTD/svg11.dtd">
<svg version="1.1" id="Layer_3" xmlns="http://www.w3.org/2000/svg" xmlns:xlink="http://www.w3.org/1999/xlink" x="0px" y="0px"
	 width="200px" height="150px" viewBox="0 0 200 150" enable-background="new 0 0 200 150" xml:space="preserve">
<path fill="#1B2328" d="M26.4013672,22.0791016l60.1552734-8.1923828l0.0263672,58.0234375l-60.1259766,0.3427734
	L26.4013672,22.0791016z M86.5273438,78.5976563l0.046875,58.0742188l-60.1259766-8.2675781l-0.0029297-50.1982422
	L86.5273438,78.5976563z M93.8193359,12.8154297l79.7626953-11.6416016V71.171875l-79.7626953,0.6347656V12.8154297z
	 M173.5986328,79.1425781l-0.0166016,69.6835938l-79.7626953-11.2587891l-0.1113281-58.5546875L173.5986328,79.1425781z"/>
</svg>
