<?xml version="1.0" encoding="utf-8"?>
<!-- Generator: Adobe Illustrator 16.0.0, SVG Export Plug-In . SVG Version: 6.00 Build 0)  -->
<!DOCTYPE svg PUBLIC "-//W3C//DTD SVG 1.1//EN" "http://www.w3.org/Graphics/SVG/1.1/DTD/svg11.dtd">
<svg version="1.1" id="Layer_1" xmlns="http://www.w3.org/2000/svg" xmlns:xlink="http://www.w3.org/1999/xlink" x="0px" y="0px"
	 width="166px" height="139.4848633px" viewBox="0 0 166 139.4848633" enable-background="new 0 0 166 139.4848633"
	 xml:space="preserve">
<g>
	<g>
		<path fill="#A7A9AC" d="M76.5566406,139.1411133H25.4453125c-9.6083984,0-17.4824219-7.8769531-17.4824219-17.4863281V40.6479492
			c0-9.6088867,7.8740234-17.3496094,17.4824219-17.3496094h51.1113281c9.6083984,0,17.4863281,7.8740234,17.4863281,17.3496094
			v81.1396484C93.9033203,131.2641602,86.1650391,139.1411133,76.5566406,139.1411133z M25.4453125,27.3032227
			c-7.3408203,0-13.2109375,6.0063477-13.2109375,13.2119141v81.1396484c0,7.3378906,6.0029297,13.2109375,13.2109375,13.2109375
			h51.1113281c7.3417969,0,13.2109375-6.0058594,13.2109375-13.2109375V40.6479492
			c0-7.3383789-6.0019531-13.2114258-13.2109375-13.2114258H25.4453125V27.3032227z"/>
		<path fill="#A7A9AC" d="M100.0419922,0.3447266H48.7988281c-7.4716797,0-13.8774414,4.8046875-16.28125,11.4765625
			c-6.0058594,2.2705078-10.5410156,7.6079102-11.3432617,14.2802734c1.3349609-0.3999023,2.8032227-0.6660156,4.2709961-0.7993164
			c0.7993164-3.6054688,2.9370117-6.5390625,6.003418-8.4101563c2.0043945-1.1987305,4.6713867-2.0009766,6.9418945-2.0009766
			h51.1103516c7.3447266,0,13.2119141,6.0063477,13.2119141,13.2114258v81.1401367
			c0,0.9394531-0.1328125,1.4707031-0.2666016,2.5371094c-0.3994141,2.1308594-1.8701172,4.4003906-1.7314453,4.4003906
			c-1.8710938,2.9375-4.9404297,5.2070313-8.4101563,6.0058594c0,1.4667969-0.265625,2.9375-0.7998047,4.2695313
			c6.5390625-0.7988281,12.0136719-5.2011719,14.2783203-11.3398438c6.671875-2.4042969,11.4726563-8.8105469,11.4726563-16.4160156
			V17.8276367C117.3964844,8.21875,109.5185547,0.3447266,100.0419922,0.3447266z M113.2597656,98.8344727
			c0,4.8007813-2.5361328,8.9355469-6.2792969,11.2070313c0-0.2675781,0-0.5332031,0-0.7988281V28.1025391
			c0-9.6088867-7.8701172-17.4799805-17.3457031-17.4799805H38.390625c-0.2661133,0-0.5356445,0-0.8022461,0
			c2.4038086-3.6054688,6.5385742-6.1396484,11.2104492-6.1396484h51.2431641
			c7.3457031,0,13.2177734,6.0063477,13.2177734,13.2119141V98.8344727z"/>
		<path fill="#A7A9AC" d="M56.5395508,66.0053711l-11.0771484-6.2729492
			c-0.3994141,1.4682617-1.3354492,2.5336914-2.5336914,3.3359375l11.7431641,6.6723633
			C54.9379883,68.40625,55.4711914,66.9375,56.5395508,66.0053711z"/>
		<path fill="#A7A9AC" d="M66.0151367,68.1391602L78.4243164,54.527832l-3.0664063-2.8027344L63.2119141,65.0693359
			C64.6801758,65.7387695,65.6157227,66.8046875,66.0151367,68.1391602z"/>
		<path fill="#A7A9AC" d="M32.1181641,74.6743164l7.3383789-10.8066406c-1.46875-0.1333008-2.800293-0.6655273-3.8696289-1.7348633
			L28.6484375,72.277832C30.1171875,72.8110352,31.1821289,73.6098633,32.1181641,74.6743164z"/>
		<path fill="#A7A9AC" d="M26.6474609,87.3598633c-4.4047852,0-8.0078125-3.6015625-8.0078125-8.0097656
			s3.6030273-8.0117188,8.0078125-8.0117188c4.4018555,0,8.0043945,3.6035156,8.0043945,8.0117188
			S31.0493164,87.3598633,26.6474609,87.3598633z M26.6474609,75.6137695c-2.137207,0-3.8720703,1.7382813-3.8720703,3.8671875
			c0,2.1328125,1.7348633,3.8710938,3.8720703,3.8710938c2.1342773,0,3.8691406-1.7382813,3.8691406-3.8710938
			C30.3833008,77.3520508,28.7817383,75.6137695,26.6474609,75.6137695z"/>
		<path fill="#A7A9AC" d="M39.9921875,66.4047852c-4.4052734,0-8.0073242-3.6025391-8.0073242-8.0073242
			s3.6020508-8.0078125,8.0073242-8.0078125c4.4018555,0,8.0073242,3.6030273,8.0073242,8.0078125
			C47.8662109,62.8022461,44.394043,66.4047852,39.9921875,66.4047852z M39.9921875,54.6621094
			c-2.137207,0-3.8720703,1.734375-3.8720703,3.8681641c0,2.1342773,1.7348633,3.8725586,3.8720703,3.8725586
			c2.1342773,0,3.8686523-1.7382813,3.8686523-3.8725586C43.7280273,56.3964844,41.9931641,54.6621094,39.9921875,54.6621094z"/>
		<path fill="#A7A9AC" d="M60.6748047,78.5454102c-4.4013672,0-8.0039063-3.6035156-8.0039063-8.0058594
			c0-4.4013672,3.6025391-8.0039063,8.0039063-8.0039063c4.4047852,0,8.0078125,3.6025391,8.0078125,8.0039063
			C68.6826172,75.0805664,65.0795898,78.5454102,60.6748047,78.5454102z M60.6748047,66.8046875
			c-2.1337891,0-3.8686523,1.734375-3.8686523,3.8735352c0,2.1328125,1.7348633,3.8710938,3.8686523,3.8710938
			c2.1376953,0,3.8720703-1.7382813,3.8720703-3.8710938C64.546875,68.5390625,62.8125,66.8046875,60.6748047,66.8046875z"/>
		<path fill="#A7A9AC" d="M79.7597656,56.5292969c-4.4018555,0-8.0078125-3.6025391-8.0078125-8.0073242
			s3.605957-8.0068359,8.0078125-8.0068359c4.4042969,0,8.0039063,3.6020508,8.0039063,8.0068359
			S84.1640625,56.5292969,79.7597656,56.5292969z M79.7597656,44.7861328c-2.1347656,0-3.8696289,1.7348633-3.8696289,3.8691406
			s1.7348633,3.8691406,3.8696289,3.8691406c2.137207,0,3.8710938-1.7348633,3.8710938-3.8691406
			S81.8969727,44.7861328,79.7597656,44.7861328z"/>
		<g>
			
				<line fill="none" stroke="#A7A9AC" stroke-width="2" stroke-miterlimit="10" x1="34.784668" y1="97.9008789" x2="34.784668" y2="125.9223633"/>
			
				<line fill="none" stroke="#A7A9AC" stroke-width="2" stroke-miterlimit="10" x1="45.1962891" y1="106.1704102" x2="45.1962891" y2="125.9223633"/>
			
				<line fill="none" stroke="#A7A9AC" stroke-width="2" stroke-miterlimit="10" x1="56.0068359" y1="99.9047852" x2="56.0068359" y2="125.9223633"/>
			
				<line fill="none" stroke="#A7A9AC" stroke-width="2" stroke-miterlimit="10" x1="64.6801758" y1="97.9008789" x2="64.6801758" y2="125.9223633"/>
		</g>
	</g>
	<g>
		<g>
			<g>
				<path fill="#339933" d="M128.4794922,34.6347656c19.9824219,0,36.1738281,16.1953125,36.1738281,36.1713867
					c0,19.9765625-16.1914063,36.1816406-36.1738281,36.1816406S92.3046875,90.7827148,92.3046875,70.8061523
					C92.3046875,50.8300781,108.4970703,34.6347656,128.4794922,34.6347656z"/>
			</g>
		</g>
		<g>
			<g>
				<g>
					<g>
						<defs>
							<rect id="SVGID_1_" x="106.9804688" y="48.7880859" width="42.3046875" height="42.300293"/>
						</defs>
						<clipPath id="SVGID_2_">
							<use xlink:href="#SVGID_1_"  overflow="visible"/>
						</clipPath>
						<path clip-path="url(#SVGID_2_)" fill="#FFFFFF" d="M108.8525391,78.684082
							c-2.4042969,2.3964844-2.4042969,6.5390625,0,8.9414063l1.6044922,1.5996094
							c1.1982422,1.2050781,2.8027344,1.8632813,4.5341797,1.8632813c1.7324219,0,3.3359375-0.6582031,4.5351563-1.8632813
							l8.2773438-8.2714844c2.2646484-2.2695313,2.4033203-6.0117188,0.3994141-8.5429688l0.1328125-0.1328125
							c0.6660156-0.671875,0.6660156-1.7382813,0-2.4038086c-0.6650391-0.6655273-1.7314453-0.6655273-2.4033203,0
							l-0.1259766,0.1337891c-2.5380859-2.1352539-6.140625-2.0014648-8.5507813,0.3989258L108.8525391,78.684082
							L108.8525391,78.684082z M111.2558594,85.2231445c-1.2050781-1.1992188-1.2050781-3.0703125,0-4.2695313l8.2705078-8.2773438
							c1.0654297-1.0703125,2.6708984-1.1972656,3.7421875-0.3984375l-2.0039063,2.0039063
							c-0.6728516,0.6601563-0.6728516,1.7324219,0,2.3984375c0.6650391,0.671875,1.7382813,0.671875,2.3974609,0
							l2.0048828-2.0058594c0.7988281,1.2050781,0.6708984,2.8027344-0.4003906,3.7421875l-8.2773438,8.2714844
							c-0.5322266,0.5332031-1.3310547,0.9375-2.1308594,0.9375c-0.7988281,0-1.5986328-0.265625-2.1367188-0.9375
							L111.2558594,85.2231445L111.2558594,85.2231445z"/>
					</g>
				</g>
				<g>
					<g>
						<defs>
							<rect id="SVGID_3_" x="106.9804688" y="48.7880859" width="42.3046875" height="42.300293"/>
						</defs>
						<clipPath id="SVGID_4_">
							<use xlink:href="#SVGID_3_"  overflow="visible"/>
						</clipPath>
						<path clip-path="url(#SVGID_4_)" fill="#FFFFFF" d="M128.203125,69.7407227
							c0.6660156,0.6660156,1.7373047,0.6660156,2.4042969,0h0.1328125c1.1982422,0.9375,2.5371094,1.4716797,4.0019531,1.4716797
							c1.7314453,0,3.3369141-0.6728516,4.5351563-1.8710938l8.2773438-8.2739258
							c2.4033203-2.4038086,2.4033203-6.5395508,0-8.9428711l-1.6054688-1.6015625
							c-2.3974609-2.4003906-6.5332031-2.4003906-8.9375,0l-8.2763672,8.2739258
							c-2.2695313,2.2705078-2.3974609,6.0063477-0.3994141,8.5400391l-0.1328125,0.1362305
							C127.5371094,68.1391602,127.5371094,69.2084961,128.203125,69.7407227L128.203125,69.7407227z M130.7402344,64.9365234
							c-0.7998047-1.2021484-0.671875-2.8037109,0.3994141-3.7358398l8.2763672-8.2739258
							c1.1982422-1.2016602,3.0712891-1.2016602,4.2695313,0l1.6044922,1.6010742
							c1.1923828,1.1992188,1.1923828,3.0673828,0,4.269043l-8.2783203,8.2734375
							c-0.5380859,0.5366211-1.3369141,0.9360352-2.1357422,0.9360352c-0.6669922,0-1.2060547-0.1337891-1.7382813-0.5332031
							l2.0039063-2.0043945c0.671875-0.6655273,0.671875-1.734375,0-2.4003906
							c-0.6650391-0.6655273-1.7373047-0.6655273-2.3974609,0L130.7402344,64.9365234L130.7402344,64.9365234z"/>
					</g>
				</g>
			</g>
			<path fill="#FFFFFF" d="M126.8710938,58.5302734c0.1269531,0,0.2666016-0.1328125,0.4003906-0.2661133
				c0.1328125-0.1333008,0.1328125-0.2666016,0-0.5332031l-2.0048828-3.3359375
				c-0.1337891-0.1362305-0.2666016-0.269043-0.3994141-0.269043c-0.1337891,0-0.2666016,0.1328125-0.3994141,0.269043
				l-0.3994141,0.7993164c-3.0703125-0.7993164-6.140625,0.1328125-8.2773438,2.2675781
				c-2.2646484,2.2705078-3.0693359,5.340332-2.2646484,8.2768555l-0.671875,0.3994141
				c-0.1328125,0.1328125-0.2666016,0.2666016-0.2666016,0.3999023c0,0.1328125,0.1337891,0.2666016,0.2666016,0.3994141
				l3.3359375,2.0039063c0.1386719,0.1333008,0.2666016,0.1333008,0.5332031,0c0,0,0.1386719,0,0.1386719-0.1362305
				c0.1269531-0.1333008,0.1269531-0.2661133,0.1269531-0.3989258v-3.8696289c0-0.1328125-0.1269531-0.2666016-0.265625-0.3994141
				c-0.1269531-0.1362305-0.2666016-0.1362305-0.5332031,0l-0.5322266,0.2666016
				c-0.2675781-2.0009766,0.4052734-3.8725586,1.8701172-5.3408203c1.3320313-1.3320313,3.3369141-2.0009766,5.3349609-1.8676758
				l-0.2666016,0.3999023c-0.1328125,0.1357422-0.1328125,0.2695313,0,0.5356445
				c0.1386719,0.1333008,0.2666016,0.2666016,0.40625,0.2666016L126.8710938,58.5302734L126.8710938,58.5302734z"/>
		</g>
	</g>
</g>
</svg>
