<?xml version="1.0" encoding="utf-8"?>
<!-- Generator: Adobe Illustrator 21.0.0, SVG Export Plug-In . SVG Version: 6.00 Build 0)  -->
<svg version="1.1" id="Layer_1" xmlns="http://www.w3.org/2000/svg" xmlns:xlink="http://www.w3.org/1999/xlink" x="0px" y="0px"
	 width="300px" height="150px" viewBox="0 0 300 150" style="enable-background:new 0 0 300 150;" xml:space="preserve">
<style type="text/css">
	.st0{fill:#1C2429;}
</style>
<path class="st0" d="M44.9,53.5v14.1c4.1-5.9,8-12.2,13.1-17.4c2.4-2.6,3.4-2.8,6.8-2.8H71v0.3C67.5,51.3,58.5,62,54,68.6
	c4.3,6.1,8.3,13.1,14,17.9c1.3,1.1,2.3,1.5,3.6,1.9c-0.8,3.3-2.2,4.5-5.8,4.5c-2.2,0-4.7-1.1-6.3-2.9C54,83.6,49.4,77,45,69.8v22.8
	h-3c-4.4,0-5.9-3.1-5.9-6.1v-39H39C43.2,47.4,44.9,50.4,44.9,53.5"/>
<path class="st0" d="M90.3,78.7h-5.8c0.7,4.5,4.7,7.3,10,7.3c3.7,0,8-0.7,10.9-3.4h0.3v2.8c0,4.5-3.1,8-12.9,8
	c-8.9,0-17.5-7-17.5-17.9c0-11.9,7.3-19.4,17.4-19.4c7.4,0,14.2,5.2,14.2,13.8C107,76.6,102.1,78.7,90.3,78.7 M91.9,63.6
	c-4.3,0-7.3,3.5-7.5,7.6l-0.1,1.2h4c8.4,0,10.3-0.9,10.3-3.5C98.6,65.4,96,63.6,91.9,63.6"/>
<path class="st0" d="M144.8,92.7c-4,0-6.4-2.5-6.4-5.8V72.7c0-6-2.7-8.7-7.2-8.7c-3.9,0-6.5,2.9-6.5,8v20.6H122
	c-3.8,0-6.2-2.5-6.2-5.8V71.3c0-7.5,4.9-15.2,16-15.2c8.4,0,15.3,5.6,15.3,15.7v20.8L144.8,92.7L144.8,92.7z"/>
<path class="st0" d="M160.6,51.5c1.2-1.4,2.8-2.5,4.2-2.5h2.1v8h12.4v3.7c0,1.9-1.7,4.3-5.3,4.3h-7v13.9c0,4.6,2.1,6.4,5.6,6.4
	c2.9,0,5-0.4,6.4-1.3h0.3v3.2c0,3.7-2.7,5.9-7.8,5.9c-9,0-13.4-4.8-13.4-13.3V58.4C158,55,158.7,53.6,160.6,51.5"/>
<path class="st0" d="M192,54.5c-2.9,0-5.1-2.4-5.1-5.2s2.3-5.1,5.1-5.1c2.9,0,5.2,2.3,5.2,5.1C197.2,52.2,194.8,54.5,192,54.5
	 M198.3,93c-6.8,0-10.7-3.9-10.7-11.1V57.8h2.5c4,0,6.3,2.1,6.3,6.6v16.7c0,3.6,1.5,4.6,5.4,4.6h1.7v1.9C203.5,91.5,202,93,198.3,93
	"/>
<path class="st0" d="M237.5,68.6c-1.2-2.1-4.5-3.7-9.7-3.7c-5.1,0-9.7,4.2-9.7,9.5c0,6.5,3.9,10.9,9.9,10.9c5,0,8.1-1.7,9.4-3.3h0.3
	v4.1c0,4.3-4.2,7.4-10.6,7.4c-9.8,0-18.3-7.6-18.3-17.8s7.1-18.9,19.3-18.9c5.6,0,9.7,3.5,9.7,7.6v4.2
	C237.7,68.6,237.5,68.6,237.5,68.6z"/>
<path class="st0" d="M262.2,56.2c10.7,0,16.8,8.6,16.8,18c0,10.7-6.1,19.3-17.6,19.3c-10.7,0-16.8-8.5-16.8-18
	C244.5,64.8,250.7,56.2,262.2,56.2 M261.4,64.1c-5.1,0-7.6,4.3-7.6,10.1c0,7.1,2.6,11.3,8.4,11.3c5.1,0,7.6-4.3,7.6-10.1
	C269.8,68.4,267.2,64.1,261.4,64.1"/>
</svg>
