<?xml version="1.0" encoding="utf-8"?>
<!-- Generator: Adobe Illustrator 21.0.0, SVG Export Plug-In . SVG Version: 6.00 Build 0)  -->
<svg version="1.1" id="Layer_1" xmlns="http://www.w3.org/2000/svg" xmlns:xlink="http://www.w3.org/1999/xlink" x="0px" y="0px"
	 width="300px" height="150px" viewBox="0 0 300 150" style="enable-background:new 0 0 300 150;" xml:space="preserve">
<style type="text/css">
	.st0{fill:#1C2429;}
</style>
<path class="st0" d="M34.1,83.4c4.1,3.8,9.5,5.9,15.1,5.8c7,0,11.4-3.5,11.4-9.1c0-4.9-2.8-6.9-8.7-9.4l-7.2-3
	c-5.1-2.1-10.5-5.1-10.5-12.4c0-8.2,6.9-12.4,14.7-12.4c4.9-0.1,9.6,1.4,13.6,4.1v4.5c-3.8-3.3-8.6-5-13.6-4.9
	c-6,0-10.8,2.8-10.8,8.5c0,4.8,3.3,6.8,8.5,8.9l7.5,3.2c7.2,3.1,10.4,6.6,10.4,12.8c0,7.8-6.5,12.9-15.4,12.9
	c-5.4,0.2-10.8-1.5-15.1-4.8L34.1,83.4 M73.6,92.1h-4V57h4V92.1L73.6,92.1z M71.6,49c-1.5,0-2.7-1.2-2.7-2.7s1.2-2.7,2.7-2.7
	s2.7,1.2,2.7,2.7l0,0C74.3,47.8,73.1,49,71.6,49L71.6,49 M89,92.2h-4V60.4h-7.5V57H85v-9h4v9h8.3v3.4H89V92.2 M102,71.6h21.3
	c-0.2-6.2-3.2-12-10.1-12C107.3,59.6,102.9,63.9,102,71.6L102,71.6L102,71.6z M114.6,89.3c3.6,0.2,7.2-1,9.9-3.4v3.9
	c-2.9,2.2-6.6,3.3-10.2,3.1c-9.8,0-16.4-7-16.4-18s5.9-18.6,15.2-18.6s13.9,7,13.9,17.2v1.4h-25.2C101.8,84.5,107.4,89.4,114.6,89.3
	 M147.7,44.3c-1.1-0.6-2.3-0.9-3.6-0.9c-3.7,0-6.4,2.7-6.4,7.6v6h8.2v3.4h-8.3v31.8h-3.9V60.4H128V57h5.7v-6.3
	c-0.4-5.4,3.6-10.2,9-10.7c0.3,0,0.6,0,0.8,0c1.4,0,2.7,0.2,4,0.7L147.7,44.3 M154.9,92.2h-4V57h4V92.2L154.9,92.2z M152.9,49.1
	c-1.5,0-2.7-1.2-2.7-2.7s1.2-2.7,2.7-2.7s2.7,1.2,2.7,2.7C155.6,47.9,154.4,49.2,152.9,49.1C152.9,49.2,152.9,49.2,152.9,49.1
	 M162.5,57.2h4v5.6c2.5-3.9,6.7-6.2,11.3-6.3c8,0,12.2,5.1,12.2,12.6v23.3h-3.9V69.6c0-5.5-2.8-9.6-9-9.6c-4.7,0.2-8.9,3.2-10.5,7.6
	v24.6h-4V57 M201.3,92.2h-4V57h4V92.2z M199.3,49.1c-1.5,0-2.7-1.2-2.7-2.7l0,0c0-1.5,1.2-2.7,2.7-2.7s2.7,1.2,2.7,2.7
	C202,47.9,200.8,49.1,199.3,49.1L199.3,49.1 M216.7,92.2h-4V60.4h-7.5V57h7.5v-9h4v9h8.3v3.4h-8.3V92.2 M235.2,105.7l5.7-13.9
	L227.1,57h4.2l11.6,29.8L254.4,57h4l-19.3,48.6L235.2,105.7"/>
</svg>
